Description-de field unexpected in testsuite-XXXXXX/test/dists/sid/main/i18n/Translation-de (line 2)
p: 1, m: 0, s: 0, l: 0
#DEBUG#Description-de field unexpected in testsuite-XXXXXX/test/dists/sid/main/i18n/Translation-de (line 10)
#DEBUG#p: 1, m: 0, s: 0, l: 0
File testsuite-XXXXXX/test/dists/sid/main/i18n/Translation-de has an invalid format
status: 1
